DocUnits:
DocUnits Success
Entities: 4; Documented ones: 3; With nitunits: 3; Failures: 0

TestSuites:
No test cases found
Class suites: 0; Test Cases: 0; Failures: 0
<testsuites><testsuite package="test_nitunit2::test_nitunit2"><testcase classname="nitunit.test_nitunit2::test_nitunit2.core::Sys" name="test_nitunit2::test_nitunit2::Sys::foo1"><system-out>if true then

   assert true

end
</system-out></testcase><testcase classname="nitunit.test_nitunit2::test_nitunit2.core::Sys" name="test_nitunit2::test_nitunit2::Sys::bar2"><system-out>if true then

    assert true

end
</system-out></testcase><testcase classname="nitunit.test_nitunit2::test_nitunit2.core::Sys" name="test_nitunit2::test_nitunit2::Sys::foo3"><system-out>var a = 1
assert a == 1
assert a == 1
</system-out></testcase></testsuite><testsuite></testsuite></testsuites>