DocUnits:
DocUnits Success
Entities: 6; Documented ones: 5; With nitunits: 3; Failures: 0

TestSuites:
No test cases found
Class suites: 0; Test Cases: 0; Failures: 0
<testsuites><testsuite package="test_doc2::test_doc2"><testcase classname="nitunit.test_doc2::test_doc2.core::Sys" name="test_doc2::test_doc2::Sys::foo1"><system-out>assert true # tested
</system-out></testcase><testcase classname="nitunit.test_doc2::test_doc2.core::Sys" name="test_doc2::test_doc2::Sys::foo2"><system-out>assert true # tested
</system-out></testcase><testcase classname="nitunit.test_doc2::test_doc2.core::Sys" name="test_doc2::test_doc2::Sys::foo3"><system-out>assert true # tested
</system-out></testcase></testsuite><testsuite></testsuite></testsuites>