test_doc3.nit:17,9--15: Syntax Error: unexpected identifier 'garbage'. To suppress this message, enclose the block with a fence tagged `nitish` or `raw` (see `man nitdoc`).
test_doc3.nit:23,4--10: Syntax Error: unexpected identifier 'garbage'. To suppress this message, enclose the block with a fence tagged `nitish` or `raw` (see `man nitdoc`).
test_doc3.nit:30,4--10: Syntax Error: unexpected identifier 'garbage'. To suppress this message, enclose the block with a fence tagged `nitish` or `raw` (see `man nitdoc`).
DocUnits:
Entities: 6; Documented ones: 5; With nitunits: 3; Failures: 3

TestSuites:
No test cases found
Class suites: 0; Test Cases: 0; Failures: 0
<testsuites><testsuite package="test_doc3::test_doc3"><testcase classname="nitunit.test_doc3::test_doc3.core::Sys" name="test_doc3::test_doc3::Sys::foo1"><failure>Compilation Error</failure><system-err>test_doc3.nit:17,9--15: Syntax Error: unexpected identifier &#39;garbage&#39;.</system-err><system-out> *garbage*
</system-out></testcase><testcase classname="nitunit.test_doc3::test_doc3.core::Sys" name="test_doc3::test_doc3::Sys::foo2"><failure>Compilation Error</failure><system-err>test_doc3.nit:23,4--10: Syntax Error: unexpected identifier &#39;garbage&#39;.</system-err><system-out>*garbage*
</system-out></testcase><testcase classname="nitunit.test_doc3::test_doc3.core::Sys" name="test_doc3::test_doc3::Sys::foo3"><failure>Compilation Error</failure><system-err>test_doc3.nit:30,4--10: Syntax Error: unexpected identifier &#39;garbage&#39;.</system-err><system-out>*garbage*
</system-out></testcase></testsuite><testsuite></testsuite></testsuites>