test_nitunit3/README.md:7,3--5: Syntax Error: unexpected malformed character '\]. To suppress this message, enclose the block with a fence tagged `nitish` or `raw` (see `man nitdoc`).
test_nitunit3/README.md:4,2--15,0: ERROR: test_nitunit3> (in .nitunit/test_nitunit3-0.nit): Runtime error
Runtime error: Assert failed (.nitunit/test_nitunit3-0.nit:7)

DocUnits:
Entities: 2; Documented ones: 2; With nitunits: 3; Failures: 2

TestSuites:
No test cases found
Class suites: 0; Test Cases: 0; Failures: 0
<testsuites><testsuite package="test_nitunit3&gt;"><testcase classname="nitunit.test_nitunit3&gt;" name="&lt;group&gt;"><failure>Compilation Error</failure><system-err>Runtime error: Assert failed (.nitunit&#47;test_nitunit3-0.nit:7)
</system-err><system-out>assert false
assert true
</system-out></testcase><testcase classname="nitunit.test_nitunit3&gt;" name="&lt;group&gt;+1"><failure>Compilation Error</failure><system-err>test_nitunit3&#47;README.md:7,3--5: Syntax Error: unexpected malformed character &#39;\].</system-err><system-out>;&#39;\][]
</system-out></testcase></testsuite><testsuite package="test_nitunit3::test_nitunit3"><testcase classname="nitunit.test_nitunit3::test_nitunit3.&lt;module&gt;" name="&lt;module&gt;"><system-out>assert true
</system-out></testcase></testsuite><testsuite></testsuite></testsuites>