test_nitunit_md.md:4,2--16,0: ERROR: nitunit.<file>.test_nitunit_md.md:1,0--15,0 (in .nitunit/file-0.nit): Runtime error
Runtime error: Assert failed (.nitunit/file-0.nit:8)

DocUnits:
Entities: 1; Documented ones: 1; With nitunits: 1; Failures: 1

TestSuites:
No test cases found
Class suites: 0; Test Cases: 0; Failures: 0
<testsuites><testsuite package="test_nitunit_md.md:1,0--15,0"><testcase classname="nitunit.&lt;file&gt;" name="test_nitunit_md.md:1,0--15,0"><failure>Compilation Error</failure><system-err>Runtime error: Assert failed (.nitunit&#47;file-0.nit:8)
</system-err><system-out>var a = 1
assert 1 == 1
assert false
</system-out></testcase></testsuite></testsuites>